<?xml version="1.0" encoding="UTF-8"?>
<testsuite name="restCtrl.RestCtrlTest" tests="1" skipped="1" failures="0" errors="0" timestamp="2016-03-15T14:25:49" hostname="s34n-pc" time="0.0">
  <properties/>
  <testcase name="restTest" classname="restCtrl.RestCtrlTest" time="0.0">
    <skipped/>
  </testcase>
  <system-out><![CDATA[]]></system-out>
  <system-err><![CDATA[Mar 15, 2016 4:25:49 PM org.springframework.test.context.support.DefaultTestContextBootstrapper getDefaultTestExecutionListenerClassNames
INFO: Loaded default TestExecutionListener class names from location [META-INF/spring.factories]: [org.springframework.test.context.web.ServletTestExecutionListener, org.springframework.test.context.support.DirtiesContextBeforeModesTestExecutionListener, org.springframework.test.context.support.DependencyInjectionTestExecutionListener, org.springframework.test.context.support.DirtiesContextTestExecutionListener, org.springframework.test.context.transaction.TransactionalTestExecutionListener, org.springframework.test.context.jdbc.SqlScriptsTestExecutionListener]
Mar 15, 2016 4:25:49 PM org.springframework.test.context.support.DefaultTestContextBootstrapper getTestExecutionListeners
INFO: Using TestExecutionListeners: [org.springframework.test.context.web.ServletTestExecutionListener@3128deeb, org.springframework.test.context.support.DirtiesContextBeforeModesTestExecutionListener@4f0867c4, org.springframework.test.context.support.DependencyInjectionTestExecutionListener@46904f7f, org.springframework.test.context.support.DirtiesContextTestExecutionListener@204f665e, org.springframework.test.context.transaction.TransactionalTestExecutionListener@57672b3a, org.springframework.test.context.jdbc.SqlScriptsTestExecutionListener@5b5d5055]
]]></system-err>
</testsuite>
